module gitlab.com/lucyvin/speedtest-logger

go 1.18

require (
	github.com/mattn/go-sqlite3 v1.14.14
	github.com/prometheus/client_golang v1.12.2
	github.com/showwin/speedtest-go v1.1.5
	github.com/spf13/viper v1.12.0
)

require (
	github.com/beorn7/perks v1.0.1 // indirect
	github.com/cespare/xxhash/v2 v2.1.2 // indirect
	github.com/fsnotify/fsnotify v1.5.4 // indirect
	github.com/golang/protobuf v1.5.2 // indirect
	github.com/hashicorp/hcl v1.0.0 // indirect
	github.com/magiconair/properties v1.8.6 // indirect
	github.com/matttproud/golang_protobuf_extensions v1.0.1 // indirect
	github.com/mitchellh/mapstructure v1.5.0 // indirect
	github.com/pelletier/go-toml v1.9.5 // indirect
	github.com/pelletier/go-toml/v2 v2.0.1 // indirect
	github.com/prometheus/client_model v0.2.0 // indirect
	github.com/prometheus/common v0.32.1 // indirect
	github.com/prometheus/procfs v0.7.3 // indirect
	github.com/spf13/afero v1.8.2 // indirect
	github.com/spf13/cast v1.5.0 // indirect
	github.com/spf13/jwalterweatherman v1.1.0 // indirect
	github.com/spf13/pflag v1.0.5 // indirect
	github.com/subosito/gotenv v1.3.0 // indirect
	golang.org/x/sync v0.0.0-20210220032951-036812b2e83c // indirect
	golang.org/x/sys v0.0.0-20220520151302-bc2c85ada10a // indirect
	golang.org/x/text v0.3.7 // indirect
	google.golang.org/protobuf v1.28.0 // indirect
	gopkg.in/ini.v1 v1.66.4 // indirect
	gopkg.in/yaml.v2 v2.4.0 // indirect
	gopkg.in/yaml.v3 v3.0.0 // indirect
)
